{
  "web": {
    "client_id": "188840702506-q40c80vjr0unfdvr2qr8dkfpchkkdgqt.apps.googleusercontent.com",
    "project_id": "probable-analog-166517",
    "auth_uri": "https://accounts.google.com/o/oauth2/auth",
    "token_uri": "https://accounts.google.com/o/oauth2/token",
    "auth_provider_x509_cert_url": "https://www.googleapis.com/oauth2/v1/certs",
    "client_secret": "pkvWiH-EXuwVe8pcOewCPk_u",
    "redirect_uris": [
      "https://us-central1-tasking-dev-ao.cloudfunctions.net/calendarIntegrations"
    ],
    "javascript_origins": [
      "http://localhost:8000"
    ]
  }
}